[gd_scene load_steps=5 format=3 uid="uid://jv2d4kfi5jte"]

[ext_resource type="Script" path="res://src/scenes/entities/bricks/Brick.gd" id="1_dgpg5"]
[ext_resource type="Texture2D" uid="uid://bya4lv1bi3i8l" path="res://src/assets/sprites/bricks/StickyBrick.png" id="2_cvgng"]
[ext_resource type="PackedScene" uid="uid://dp0j3qehh81qt" path="res://src/scenes/entities/bricks/BrickLogic.tscn" id="3_5hrcq"]

[sub_resource type="RectangleShape2D" id="RectangleShape2D_6t1vk"]
resource_local_to_scene = true
size = Vector2(32, 96)

[node name="StickyBrick" type="Node2D"]
script = ExtResource("1_dgpg5")

[node name="Sprite" type="Polygon2D" parent="."]
texture_repeat = 2
texture = ExtResource("2_cvgng")
texture_offset = Vector2(24, 64)
texture_scale = Vector2(21.5, 21.5)
polygon = PackedVector2Array(-16, -48, 16, -48, 16, 48, -16, 48)

[node name="BrickLogic" parent="." node_paths=PackedStringArray("sprite_node") instance=ExtResource("3_5hrcq")]
gravity_scale = 0.0
brick_points = 40
brick_effect = 1
brick_sound = 3
sprite_node = NodePath("../Sprite")

[node name="CollisionShape2D" type="CollisionShape2D" parent="BrickLogic"]
visible = false
shape = SubResource("RectangleShape2D_6t1vk")
debug_color = Color(0.219608, 0.639216, 0, 0.419608)

[connection signal="effect" from="BrickLogic" to="." method="_on_brick_logic_effect"]
[connection signal="gold" from="BrickLogic" to="." method="_on_brick_logic_gold"]
[connection signal="points" from="BrickLogic" to="." method="_on_brick_logic_points"]
