[gd_scene load_steps=3 format=3 uid="uid://brphohagta3ro"]

[ext_resource type="Script" path="res://src/scenes/autoloads/Sound.gd" id="1_bummw"]
[ext_resource type="AudioStream" uid="uid://dd01tas45eriv" path="res://src/assets/sfx/ui/button.ogg" id="2_r7rpu"]

[node name="Sound" type="Node"]
process_mode = 3
script = ExtResource("1_bummw")

[node name="ButtonSound" type="AudioStreamPlayer" parent="."]
stream = ExtResource("2_r7rpu")
volume_db = 12.0
max_polyphony = 5

[node name="AttenuationTimer0" type="Timer" parent="."]
wait_time = 0.5
one_shot = true
autostart = true

[node name="AttenuationTimer1" type="Timer" parent="."]
wait_time = 0.5
one_shot = true

[connection signal="timeout" from="AttenuationTimer0" to="." method="_on_attenuation_timer_0_timeout"]
[connection signal="timeout" from="AttenuationTimer1" to="." method="_on_attenuation_timer_1_timeout"]
