[gd_scene load_steps=2 format=3 uid="uid://d3fx6h3lhi6io"]

[ext_resource type="Script" path="res://src/scenes/entities/obstacles/ObstacleLogic.gd" id="1_uia0t"]

[node name="ObstacleLogic" type="Area2D"]
collision_layer = 0
collision_mask = 24
script = ExtResource("1_uia0t")
